{
  "project_info": {
    "project_number": "1094177911877",
    "project_id": "wan-flora",
    "storage_bucket": "wan-flora.appspot.com"
  },
  "client": [
    {
      "client_info": {
        "mobilesdk_app_id": "1:1094177911877:android:94f8fcad2312a7b0191f2c",
        "android_client_info": {
          "package_name": "com.plantshop"
        }
      },
      "oauth_client": [
        {
          "client_id": "1094177911877-286p2jbv4t4dmlljro4kuhmvs6kepar1.apps.googleusercontent.com",
          "client_type": 3
        }
      ],
      "api_key": [
        {
          "current_key": "AIzaSyCuHUrJsY4NibnoJCH3ba-ik9r4wAqyWfg"
        }
      ],
      "services": {
        "appinvite_service": {
          "other_platform_oauth_client": [
            {
              "client_id": "1094177911877-286p2jbv4t4dmlljro4kuhmvs6kepar1.apps.googleusercontent.com",
              "client_type": 3
            }
          ]
        }
      }
    }
  ],
  "configuration_version": "1"
}